{
  "images" : [
    {
      "idiom" : "iphone",
      "scale" : "1x"
    },
    {
      "idiom" : "iphone",
      "scale" : "2x",
      "filename" : "scnccard-btnx@2x.png"
    },
    {
      "idiom" : "iphone",
      "scale" : "3x",
      "filename" : "scnccard-btnx@3x.png"
    },
    {
      "idiom" : "ipad",
      "scale" : "1x",
      "filename" : "scnccard-btnx~ipad.png"
    },
    {
      "idiom" : "ipad",
      "scale" : "2x",
      "filename" : "scnccard-btnx@2x~ipad.png"
    }
  ],
  "info" : {
    "version" : 1,
    "author" : "xcode"
  }
}